%YAML 1.1
%TAG !u! tag:unity3d.com,2011:
--- !u!114 &11400000
MonoBehaviour:
  m_ObjectHideFlags: 0
  m_CorrespondingSourceObject: {fileID: 0}
  m_PrefabInstance: {fileID: 0}
  m_PrefabAsset: {fileID: 0}
  m_GameObject: {fileID: 0}
  m_Enabled: 1
  m_EditorHideFlags: 0
  m_Script: {fileID: 11500000, guid: ba0276d3007d0d9448921bb0f69a1a9a, type: 3}
  m_Name: ActionSublevel
  m_EditorClassIdentifier: 
  actionSublevel:
  - {fileID: 11400000, guid: b39f13ef7c48a934e9799b5d7ecc90f1, type: 2}
  - {fileID: 11400000, guid: 2da17655af625ba40bc6b77c171330f5, type: 2}
  - {fileID: 11400000, guid: ddf132ed7ae07284ba581b3c3d0f9682, type: 2}
  - {fileID: 11400000, guid: 5e746dd9f27e9c849beb01dbc401d300, type: 2}
  - {fileID: 11400000, guid: 3ee4c0421a28c7c4d8d8f3f034340aaa, type: 2}
  - {fileID: 11400000, guid: efb340c0b6063a641a34e07f294ccedb, type: 2}
  - {fileID: 11400000, guid: b60b6a1d5c52d00488eae15ac0ce6f37, type: 2}
