%YAML 1.1
%TAG !u! tag:unity3d.com,2011:
--- !u!114 &11400000
MonoBehaviour:
  m_ObjectHideFlags: 0
  m_CorrespondingSourceObject: {fileID: 0}
  m_PrefabInstance: {fileID: 0}
  m_PrefabAsset: {fileID: 0}
  m_GameObject: {fileID: 0}
  m_Enabled: 1
  m_EditorHideFlags: 0
  m_Script: {fileID: 11500000, guid: 10f3e794f7c8eeb42b76b1f6a740fcde, type: 3}
  m_Name: ActionDataMove
  m_EditorClassIdentifier: 
  startPosition: {x: 82, y: -8.5, z: 0}
  targetPosition: {x: 109, y: -8.5, z: 0}
  actionSpeed: 4
