%YAML 1.1
%TAG !u! tag:unity3d.com,2011:
--- !u!114 &11400000
MonoBehaviour:
  m_ObjectHideFlags: 0
  m_CorrespondingSourceObject: {fileID: 0}
  m_PrefabInstance: {fileID: 0}
  m_PrefabAsset: {fileID: 0}
  m_GameObject: {fileID: 0}
  m_Enabled: 1
  m_EditorHideFlags: 0
  m_Script: {fileID: 11500000, guid: ba0276d3007d0d9448921bb0f69a1a9a, type: 3}
  m_Name: ActionSublevel
  m_EditorClassIdentifier: 
  actionSublevel:
  - {fileID: 11400000, guid: cc8ed06e8c1d95348b9183593936c5c0, type: 2}
